# This file uses centimeters as units for non-parametric coordinates.

mtllib New_Rock_A.mtl
g default
v 28.090277 8.593180 -6.360229
v 26.363396 0.809105 -8.000443
v 26.119968 0.774779 -9.316366
v 26.427618 2.090203 -10.895232
v 23.962528 8.904501 -9.792133
v 28.386518 8.481108 -6.942733
v 28.308119 3.947282 -8.840127
v 24.772085 9.932021 -9.456502
v 24.348345 3.254001 -7.484088
v 24.819944 9.697640 -8.187661
v 28.042297 7.445781 -6.091547
v 28.724463 7.401589 -6.951521
v 28.032122 9.076760 -7.612780
v 27.359608 9.339864 -6.554750
v 26.855129 8.315155 -5.808001
v 26.728355 2.309069 -6.439107
v 25.092348 2.819347 -6.701370
v 25.092403 1.420125 -8.143832
v 27.400982 1.233626 -8.646973
v 27.862829 2.202075 -6.973639
v 25.479462 1.169287 -9.795956
v 25.983829 1.465021 -10.534167
v 26.729898 1.125429 -9.893017
v 26.058092 3.253936 -11.158205
v 26.956097 3.511481 -10.665998
v 27.118139 1.913567 -10.427002
v 25.323141 2.524660 -10.861647
v 26.037628 8.082884 -10.272635
v 25.047220 7.801572 -10.643898
v 23.914213 7.518170 -9.735045
v 23.641094 7.971101 -8.909896
v 28.463530 7.603445 -8.198059
v 28.440628 5.627103 -8.512476
v 28.770372 5.235053 -7.018837
v 28.561398 2.952810 -8.154865
v 27.724230 3.633399 -9.879560
v 27.679852 5.736694 -9.858453
v 27.579542 1.839082 -9.640056
v 24.061436 8.202865 -7.897858
v 24.114100 2.573383 -8.609386
v 26.069891 9.723904 -7.349213
v 26.808517 9.600784 -8.610767
v 27.361185 7.876602 -9.339515
v 26.451542 5.590909 -10.718529
v 25.558632 5.414231 -11.017112
v 24.797401 5.143137 -10.759011
v 24.445314 7.057107 -10.427609
v 24.707712 2.222414 -10.062358
v 24.053221 4.902246 -9.729972
v 23.768114 4.849590 -8.722290
v 24.111736 5.038102 -7.374564
v 25.071302 5.339669 -6.236861
v 25.337378 8.492870 -6.574805
v 26.696459 5.132063 -5.521777
v 28.036949 5.073846 -5.947393
vt 0.279575 0.508319
vt 0.229626 0.553640
vt 0.205803 0.480003
vt 0.277936 0.436434
vt 0.111488 0.497664
vt 0.138178 0.589162
vt 0.199055 0.299739
vt 0.280453 0.293578
vt 0.342362 0.440832
vt 0.319478 0.506719
vt 0.096999 0.309704
vt 0.044654 0.598966
vt 0.001801 0.497795
vt 0.194733 0.127095
vt 0.269102 0.110282
vt 0.356020 0.310575
vt 0.007690 0.291782
vt 0.092752 0.153971
vt 0.025246 0.177362
vt 0.160260 0.001992
vt 0.079355 0.032029
vt 0.293913 0.750361
vt 0.362399 0.707687
vt 0.392883 0.818135
vt 0.318002 0.853417
vt 0.277846 0.663503
vt 0.318104 0.625442
vt 0.374185 0.642138
vt 0.438992 0.740168
vt 0.235569 0.631848
vt 0.268860 0.583122
vt 0.343730 0.590196
vt 0.210021 0.740896
vt 0.184630 0.614264
vt 0.225251 0.561507
vt 0.298152 0.559290
vt 0.145449 0.710168
vt 0.753337 0.522090
vt 0.724045 0.563355
vt 0.680436 0.493413
vt 0.728947 0.445278
vt 0.695980 0.302687
vt 0.645735 0.320581
vt 0.788219 0.428278
vt 0.798915 0.533749
vt 0.754916 0.291026
vt 0.639815 0.513363
vt 0.596615 0.336481
vt 0.622495 0.194250
vt 0.662224 0.145111
vt 0.829370 0.538665
vt 0.838920 0.420231
vt 0.835991 0.281403
vt 0.727596 0.126543
vt 0.587440 0.163817
vt 0.590629 0.072313
vt 0.814957 0.140159
vt 0.644064 0.004491
vt 0.887717 0.158189
vt 0.886206 0.288637
vt 0.778478 0.026355
vt 0.859242 0.060943
vt 0.380597 0.498497
vt 0.384365 0.406992
vt 0.438829 0.436888
vt 0.402750 0.566318
vt 0.384700 0.234328
vt 0.451212 0.230853
vt 0.505629 0.452185
vt 0.486500 0.550848
vt 0.362761 0.057446
vt 0.458664 0.080612
vt 0.540169 0.243295
vt 0.532939 0.125536
vt 0.489393 0.004491
vt 0.584603 0.096847
vt 0.498441 0.941326
vt 0.499020 0.870072
vt 0.581298 0.883396
vt 0.542667 0.980642
vt 0.503464 0.727070
vt 0.602051 0.752948
vt 0.459992 0.948723
vt 0.472832 0.998008
vt 0.623678 0.642071
vt 0.578447 0.576431
vt 0.692285 0.621353
vt 0.690892 0.760181
vt 0.432743 0.716430
vt 0.500480 0.526879
vt 0.676477 0.502920
vt 0.818610 0.746338
vt 0.763268 0.663835
vt 0.846537 0.615082
vt 0.902359 0.749497
vt 0.710829 0.578708
vt 0.780665 0.534318
vn 0.582218 0.423655 0.693930
vn 0.514370 0.092655 0.852549
vn 0.981069 0.090230 0.171354
vn 0.903523 0.407099 0.133854
vn 0.679146 0.679637 -0.277225
vn 0.143808 0.824973 0.546570
vn -0.171013 0.256632 0.951259
vn -0.047463 -0.880576 0.471523
vn -0.006231 -0.491511 0.870849
vn -0.497589 -0.372669 0.783277
vn -0.599955 -0.710417 0.367915
vn 0.642248 -0.758111 0.113071
vn 0.650512 -0.504896 0.567375
vn -0.104664 -0.990160 -0.092885
vn -0.580443 -0.771054 -0.261841
vn -0.189562 -0.645463 -0.739894
vn 0.379952 -0.839769 -0.387845
vn 0.249408 -0.297081 -0.921704
vn 0.053595 -0.021990 -0.998321
vn 0.586022 0.033358 -0.809608
vn 0.661600 -0.312146 -0.681800
vn -0.584029 -0.220542 -0.781199
vn -0.552738 0.468892 -0.688927
vn -0.094633 0.849933 -0.518323
vn 0.387106 0.407149 -0.827272
vn -0.080124 0.287105 -0.954542
vn -0.895829 0.028702 -0.443470
vn -0.980080 0.154963 0.124218
vn 0.870332 0.230369 -0.435261
vn 0.917673 -0.023328 -0.396651
vn 0.918027 0.066731 -0.390862
vn 0.969797 -0.087557 0.227654
vn 0.959451 -0.280396 0.028835
vn 0.795092 -0.019844 -0.606164
vn 0.713558 0.152103 -0.683885
vn 0.845429 -0.400392 -0.353463
vn -0.841365 0.236552 0.485952
vn -0.499363 0.804094 0.322597
vn -0.848819 -0.238558 0.471801
vn -0.931551 -0.363485 0.009575
vn -0.153376 0.894639 0.419640
vn 0.456800 0.770721 -0.444211
vn 0.630199 0.361361 -0.687217
vn 0.478306 0.175464 -0.860486
vn 0.015621 0.106611 -0.994178
vn -0.627894 -0.045248 -0.776982
vn -0.647742 0.025371 -0.761438
vn -0.829647 -0.365060 -0.422394
vn -0.889232 -0.109000 -0.444280
vn -0.995898 -0.089859 0.010635
vn -0.859554 -0.007731 0.510987
vn -0.559861 -0.001785 0.828585
vn -0.558224 0.287966 0.778114
vn -0.091710 -0.089660 0.991741
vn 0.582762 -0.150326 0.798618
s 1
g Rock_A:Group9886
usemtl lambert2SG
f 1/1/1 11/4/2 12/9/3 6/10/4
f 1/83/1 6/77/4 13/80/5 14/84/6
f 1/1/1 14/2/6 15/3/7 11/4/2
f 2/20/8 16/14/9 17/18/10 18/21/11
f 2/22/8 19/23/12 20/24/13 16/25/9
f 3/26/14 21/30/15 22/31/16 23/27/17
f 4/38/18 24/41/19 25/44/20 26/45/21
f 4/38/18 22/39/16 27/40/22 24/41/19
f 4/36/18 26/32/21 23/27/17 22/31/16
f 5/56/23 8/58/24 28/54/25 29/50/26
f 5/63/23 30/64/27 31/65/28 8/66/24
f 6/77/4 12/78/3 32/79/29 13/80/5
f 7/85/30 33/82/31 34/81/32 35/86/33
f 7/85/30 36/87/34 37/88/35 33/82/31
f 7/85/30 35/86/33 38/91/36 36/87/34
f 8/66/24 31/65/28 39/69/37 10/70/38
f 9/74/39 40/72/40 18/75/11 17/76/10
f 10/92/38 41/93/41 42/94/42 8/95/24
f 42/61/42 13/62/5 32/59/29 43/57/43
f 42/61/42 43/57/43 28/54/25 8/58/24
f 42/94/42 41/93/41 14/96/6 13/97/5
f 43/57/43 32/59/29 33/60/31 37/53/35
f 43/57/43 37/53/35 44/46/44 28/54/25
f 44/46/44 37/53/35 36/52/34 25/44/20
f 44/46/44 25/44/20 24/41/19 45/42/45
f 44/46/44 45/42/45 29/50/26 28/54/25
f 45/42/45 24/41/19 27/40/22 46/43/46
f 45/42/45 46/43/46 47/49/47 29/50/26
f 46/43/46 27/40/22 48/47/48 49/48/49
f 46/43/46 49/48/49 30/55/27 47/49/47
f 49/67/49 48/71/48 40/72/40 50/68/50
f 49/67/49 50/68/50 31/65/28 30/64/27
f 50/68/50 40/72/40 9/74/39 51/73/51
f 50/68/50 51/73/51 39/69/37 31/65/28
f 51/17/51 9/19/39 17/18/10 52/11/52
f 51/17/51 52/11/52 53/5/53 39/13/37
f 53/5/53 52/11/52 54/7/54 15/3/7
f 53/5/53 15/3/7 14/2/6 41/6/41
f 53/5/53 41/6/41 10/12/38 39/13/37
f 54/7/54 52/11/52 17/18/10 16/14/9
f 54/7/54 16/14/9 20/15/13 55/8/55
f 54/7/54 55/8/55 11/4/2 15/3/7
f 55/89/55 20/90/13 35/86/33 34/81/32
f 55/8/55 34/16/32 12/9/3 11/4/2
f 48/34/48 27/35/22 22/31/16 21/30/15
f 48/34/48 21/30/15 18/33/11 40/37/40
f 38/28/36 19/23/12 23/27/17 26/32/21
f 38/51/36 26/45/21 25/44/20 36/52/34
f 38/28/36 35/29/33 20/24/13 19/23/12
f 34/81/32 33/82/31 32/79/29 12/78/3
f 47/49/47 30/55/27 5/56/23 29/50/26
f 21/30/15 3/26/14 2/22/8 18/33/11
f 3/26/14 23/27/17 19/23/12 2/22/8
